[
    
    {
        "degree_id": "D-1",
        "id": "M-1",
        "name": "Server and client side scripting",
        "number_of_hours": "36",
        "learning_outcomes": ["LO1", "LO2", "LO3"],
        "number_of_credits": "20",
        "assessments": ["A-1", "A-2"]
    }
] 
